{
  "profiles": {
    "SocialNetwork_Authorisation": {
      "launchBrowser": false,

      "commandName": "Project",
      "launchUrl": "swagger",
      "environmentVariables": {
        "ASPNETCORE_ENVIRONMENT": "Development"
      },
      "dotnetRunMessages": true,
      "applicationUrl": "https://localhost:50001;http://localhost:50002"
    },
    "Docker": {
      "commandName": "Docker",
      "launchBrowser": false,
      "launchUrl": "{Scheme}://{ServiceHost}:{ServicePort}/swagger",
      "publishAllPorts": true,
      "useSSL": true
    }
  }
}
